INDEX VERSION 1.130+C:\Users\fsantaniello\Documents\workspace-sts-3.9.3.RELEASE\.metadata\.plugins\org.eclipse.jdt.core
2240811037.index
252552189.index
2982900430.index
2043497473.index
750269060.index
334661911.index
3724989876.index
3927496509.index
3840913652.index
540875660.index
486146897.index
1004057511.index
3434969968.index
2178588352.index
644824232.index
356139856.index
3307782613.index
1656031814.index
1474640365.index
449638128.index
4137343109.index
1892511226.index
1787504709.index
1951071183.index
2927266998.index
2798112309.index
4031774414.index
857906791.index
1650935530.index
714200647.index
2927895406.index
3449011694.index
3132388403.index
913337938.index
2458569148.index
704984809.index
3362527862.index
2297119376.index
766217030.index
841686449.index
2609455761.index
4163412989.index
1041591524.index
2290039856.index
734186664.index
1218674635.index
1941265233.index
2820618999.index
1825888186.index
844019329.index
1165546728.index
183850693.index
312774176.index
1399217278.index
1590359608.index
949358932.index
2121491236.index
1560830227.index
2407732767.index
3838746621.index
3886310838.index
1435791821.index
2848508289.index
1507624065.index
89130836.index
2530386827.index
2216830364.index
1968136620.index
3235488902.index
4218773828.index
2189906095.index
3373541240.index
1761349776.index
1178507320.index
3055244947.index
2078556106.index
3803796689.index
4086147722.index
285703422.index
3150964546.index
2158101805.index
1788443557.index
3675481976.index
424174097.index
1637914358.index
1664657044.index
2950225156.index
1461677537.index
3281209025.index
2205253281.index
1827618626.index
1192668139.index
70130193.index
138634683.index
2360720964.index
1836389496.index
1207747385.index
2192988878.index
2856959658.index
1076183191.index
525784591.index
3179500854.index
3353257181.index
3555306554.index
2081147194.index
640139294.index
2792501125.index
1250694715.index
2150198468.index
3877388946.index
1543810538.index
2204651557.index
2067510718.index
2144841137.index
2968923972.index
2280807611.index
3365101449.index
1766522112.index
2985734343.index
2379905092.index
65056956.index
145770414.index
1251893892.index
3446857294.index
1177366170.index
3990503814.index
2620464829.index
2135478449.index
3417228371.index
3204938400.index
1649428365.index
3634243385.index
3891965335.index
2123605874.index
1724089790.index
1950885449.index
1026153347.index
889617284.index
3817852656.index
3152351817.index
1271170172.index
