INDEX VERSION 1.4+C:\Users\fsantaniello\Documents\workspace-sts-3.9.3.RELEASE\.metadata\.plugins\org.eclipse.wst.jsdt.core\indexes
2069151374.index
486146897.index
1494068170.index
3927496509.index
4140096265.index
